-16 -8 952
-32 -16 -520 -56 -144 -24 -8 136
-704 -8 -24 -88 136
-168 -296 512
-248 736
-160 824
-224 -488 -40 216
528 -24 -112 304
624 -96 -16 -8 -8 -8 -48 -8 112
-256 -176 -96 440
-24 960
-216 -312 448
-304 -392 -40 -8 -8 200
-8 -16 592 -104 72 -8 144
-208 -40 -24 8 -8 248 -144 -64 184
